<svg display="none" xmlns="http://www.w3.org/2000/svg">
    <symbol id="scroll-top" viewBox="0 0 55 55">
        <circle cx="27.5" cy="27.5" r="27"/>
        <path d="M33.9667 25.8088C33.5891 26.1865 32.9767 26.1865 32.599 25.8088L29.0921 22.3019V38.0197C29.0921 38.5538 28.6591 38.9868 28.125 38.9868C27.5909 38.9868 27.1579 38.5538 27.1579 38.0197V22.3019L23.651 25.8088C23.2733 26.1865 22.6609 26.1865 22.2833 25.8088C21.9056 25.4311 21.9056 24.8188 22.2833 24.4411L27.4412 19.2832C27.8188 18.9056 28.4312 18.9056 28.8088 19.2832L33.9667 24.4411C34.3444 24.8188 34.3444 25.4311 33.9667 25.8088Z"/>
    </symbol>
</svg>